<?xml version="1.0" encoding="UTF-8" standalone="no"?>
<!-- Created with Inkscape (http://www.inkscape.org/) -->

<svg
   xmlns:dc="http://purl.org/dc/elements/1.1/"
   xmlns:cc="http://creativecommons.org/ns#"
   xmlns:rdf="http://www.w3.org/1999/02/22-rdf-syntax-ns#"
   xmlns:svg="http://www.w3.org/2000/svg"
   xmlns="http://www.w3.org/2000/svg"
   xmlns:sodipodi="http://sodipodi.sourceforge.net/DTD/sodipodi-0.dtd"
   xmlns:inkscape="http://www.inkscape.org/namespaces/inkscape"
   width="60"
   height="96"
   id="svg2"
   version="1.1"
   inkscape:version="0.48.4 r9939"
   inkscape:export-filename="C:\Users\DarthCrap\Desktop\circle_8.png"
   inkscape:export-xdpi="30"
   inkscape:export-ydpi="30"
   sodipodi:docname="New document 1">
  <defs
     id="defs4" />
  <sodipodi:namedview
     id="base"
     pagecolor="#1a2229"
     bordercolor="#666666"
     borderopacity="1.0"
     inkscape:pageopacity="0"
     inkscape:pageshadow="2"
     inkscape:zoom="1"
     inkscape:cx="33.103432"
     inkscape:cy="22.775445"
     inkscape:document-units="px"
     inkscape:current-layer="layer1"
     showgrid="false"
     inkscape:window-width="1600"
     inkscape:window-height="838"
     inkscape:window-x="-8"
     inkscape:window-y="-8"
     inkscape:window-maximized="1" />
  <metadata
     id="metadata7">
    <rdf:RDF>
      <cc:Work
         rdf:about="">
        <dc:format>image/svg+xml</dc:format>
        <dc:type
           rdf:resource="http://purl.org/dc/dcmitype/StillImage" />
        <dc:title></dc:title>
      </cc:Work>
    </rdf:RDF>
  </metadata>
  <g
     inkscape:label="Layer 1"
     inkscape:groupmode="layer"
     id="layer1"
     transform="translate(0,-956.3622)">
    <rect
       style="fill:#10181f;fill-opacity:1;fill-rule:evenodd;stroke:none"
       id="rect2985"
       width="8.6000004"
       height="96"
       x="25.700001"
       y="956.36218" />
    <path
       style="fill:#00acac;fill-opacity:1;stroke:none"
       d="m 30,995.3622 c -7.179702,0 -13,5.8203 -13,13 0,7.1797 5.820298,13 13,13 7.179702,0 13,-5.8203 13,-13 0,-7.1797 -5.820298,-13 -13,-13 z m 0,4.34375 c 4.786376,0 8.65625,3.86985 8.65625,8.65625 0,4.7864 -3.869874,8.6563 -8.65625,8.6563 -4.786376,0 -8.65625,-3.8699 -8.65625,-8.6563 0,-4.7864 3.869874,-8.65625 8.65625,-8.65625 z"
       id="path3780"
       inkscape:connector-curvature="0" />
  </g>
</svg>
